4.9973e-16,130.45
1.4992e-15,112.39
2.4986e-15,89.875
3.4981e-15,70.377
4.4976e-15,59.233
5.497e-15,57.674
6.4965e-15,62.633
7.4959e-15,68.307
8.4954e-15,68.883
9.4948e-15,61.32
1.0494e-14,46.803
1.1494e-14,30.087
1.2493e-14,17.162
1.3493e-14,12.492
1.4492e-14,17.108
1.5492e-14,28.232
1.6491e-14,40.487
1.7491e-14,48.19
1.849e-14,47.781
1.9489e-14,39.253
2.0489e-14,25.912
2.1488e-14,12.687
2.2488e-14,3.8869
2.3487e-14,1.466
2.4487e-14,4.4436
2.5486e-14,9.6379
2.6486e-14,13.319
2.7485e-14,13.028
2.8485e-14,8.6893
2.9484e-14,2.5047
3.0483e-14,-2.2205
3.1483e-14,-2.7119
3.2482e-14,1.9687
3.3482e-14,10.491
3.4481e-14,19.857
3.5481e-14,26.748
3.648e-14,28.959
3.748e-14,26.28
3.8479e-14,20.411
3.9479e-14,14.061
4.0478e-14,9.6694
4.1477e-14,8.3559
4.2477e-14,9.5617
4.3476e-14,11.506
4.4476e-14,12.21
4.5475e-14,10.563
4.6475e-14,6.8871
4.7474e-14,2.7636
4.8474e-14,0.26197
4.9473e-14,0.95172
5.0473e-14,5.1414
5.1472e-14,11.699
5.2472e-14,18.527
5.3471e-14,23.47
5.447e-14,25.202
5.547e-14,23.68
5.6469e-14,19.997
5.7469e-14,15.778
5.8468e-14,12.417
5.9468e-14,10.506
6.0467e-14,9.706
6.1467e-14,9.0951
6.2466e-14,7.7746
6.3466e-14,5.3985
6.4465e-14,2.3694
6.5464e-14,-0.36184
6.6464e-14,-1.7629
6.7463e-14,-1.2088
6.8463e-14,1.22
6.9462e-14,4.7779
7.0462e-14,8.3978
7.1461e-14,11.168
7.2461e-14,12.653
7.346e-14,12.946
7.446e-14,12.456
7.5459e-14,11.593
7.6458e-14,10.522
7.7458e-14,9.0879
7.8457e-14,6.9835
7.9457e-14,4.0344
8.0456e-14,0.45114
8.1456e-14,-3.1321
8.2455e-14,-5.8674
8.3455e-14,-7.0328
8.4454e-14,-6.3394
8.5454e-14,-4.0763
8.6453e-14,-1.0025
8.7453e-14,1.9657
8.8452e-14,4.1358
8.9451e-14,5.2919
9.0451e-14,5.6932
9.145e-14,5.8388
9.245e-14,6.1408
9.3449e-14,6.6648
9.4449e-14,7.0649
9.5448e-14,6.7286
9.6448e-14,5.0959
9.7447e-14,1.9896
9.8447e-14,-2.2197
9.9446e-14,-6.7016
1.0045e-13,-10.465
1.0144e-13,-12.715
1.0244e-13,-13.108
1.0344e-13,-11.823
1.0444e-13,-9.4177
1.0544e-13,-6.5585
1.0644e-13,-3.7395
1.0744e-13,-1.147
1.0844e-13,1.2808
1.0944e-13,3.6667
1.1044e-13,6.0031
1.1144e-13,8.0619
1.1244e-13,9.4447
1.1344e-13,9.7558
1.1444e-13,8.8148
1.1544e-13,6.7945
1.1644e-13,4.1893
1.1744e-13,1.6233
1.1844e-13,-0.40468
1.1944e-13,-1.6904
1.2043e-13,-2.3421
1.2143e-13,-2.6511
1.2243e-13,-2.8684
1.2343e-13,-3.0254
1.2443e-13,-2.869
1.2543e-13,-1.9943
1.2643e-13,-0.092723
1.2743e-13,2.8004
1.2843e-13,6.2098
1.2943e-13,9.3255
1.3043e-13,11.287
1.3143e-13,11.521
1.3243e-13,9.9853
1.3343e-13,7.1971
1.3443e-13,4.0326
1.3543e-13,1.3736
1.3643e-13,-0.24371
1.3743e-13,-0.79505
1.3842e-13,-0.70288
1.3942e-13,-0.57041
1.4042e-13,-0.84563
1.4142e-13,-1.5807
1.4242e-13,-2.3894
1.4342e-13,-2.6396
1.4442e-13,-1.7719
1.4542e-13,0.39607
1.4642e-13,3.5403
1.4742e-13,6.9234
1.4842e-13,9.6674
1.4942e-13,11.094
1.5042e-13,10.974
1.5142e-13,9.5715
1.5242e-13,7.4896
1.5342e-13,5.3709
1.5442e-13,3.6428
1.5542e-13,2.3862
1.5642e-13,1.3909
1.5741e-13,0.34404
1.5841e-13,-0.94249
1.5941e-13,-2.3908
1.6041e-13,-3.6728
1.6141e-13,-4.3652
1.6241e-13,-4.1768
1.6341e-13,-3.1157
1.6441e-13,-1.5104
1.6541e-13,0.11556
1.6641e-13,1.261
1.6741e-13,1.6494
1.6841e-13,1.3166
1.6941e-13,0.55199
1.7041e-13,-0.26862
1.7141e-13,-0.87716
1.7241e-13,-1.2334
1.7341e-13,-1.5196
1.7441e-13,-2.0117
1.754e-13,-2.894
1.764e-13,-4.114
1.774e-13,-5.3662
1.784e-13,-6.207
1.794e-13,-6.2535
1.804e-13,-5.3683
1.814e-13,-3.7307
1.824e-13,-1.7804
1.834e-13,-0.050177
1.844e-13,1.0332
1.854e-13,1.2956
1.864e-13,0.84877
1.874e-13,-0.0029744
1.884e-13,-0.93075
1.894e-13,-1.7327
1.904e-13,-2.4058
1.914e-13,-3.0941
1.924e-13,-3.9705
1.934e-13,-5.1078
1.9439e-13,-6.4099
1.9539e-13,-7.6345
1.9639e-13,-8.4789
1.9739e-13,-8.7141
1.9839e-13,-8.2763
1.9939e-13,-7.287
2.0039e-13,-5.983
2.0139e-13,-4.6115
2.0239e-13,-3.3382
2.0339e-13,-2.2248
2.0439e-13,-1.2626
2.0539e-13,-0.44575
2.0639e-13,0.17478
2.0739e-13,0.48273
2.0839e-13,0.34241
2.0939e-13,-0.30184
2.1039e-13,-1.3534
2.1139e-13,-2.5557
2.1238e-13,-3.5633
2.1338e-13,-4.082
2.1438e-13,-3.9829
2.1538e-13,-3.3591
2.1638e-13,-2.479
2.1738e-13,-1.6641
2.1838e-13,-1.1378
2.1938e-13,-0.92376
2.2038e-13,-0.84386
2.2138e-13,-0.6207
2.2238e-13,-0.034759
2.2338e-13,0.9283
2.2438e-13,2.0243
2.2538e-13,2.8313
2.2638e-13,2.9195
2.2738e-13,2.0531
2.2838e-13,0.31676
2.2938e-13,-1.8983
2.3037e-13,-4.0293
2.3137e-13,-5.543
2.3237e-13,-6.1348
2.3337e-13,-5.8321
2.3437e-13,-4.9598
2.3537e-13,-3.9767
2.3637e-13,-3.2618
2.3737e-13,-2.9518
2.3837e-13,-2.9129
2.3937e-13,-2.8299
2.4037e-13,-2.3804
2.4137e-13,-1.4052
2.4237e-13,-0.0060998
2.4337e-13,1.4678
2.4437e-13,2.5514
2.4537e-13,2.8556
2.4637e-13,2.2287
2.4737e-13,0.81397
2.4837e-13,-1.0117
2.4936e-13,-2.7874
2.5036e-13,-4.1324
2.5136e-13,-4.8719
2.5236e-13,-5.0617
2.5336e-13,-4.9209
2.5436e-13,-4.7105
2.5536e-13,-4.6111
2.5636e-13,-4.653
2.5736e-13,-4.7295
2.5836e-13,-4.6622
2.5936e-13,-4.3007
2.6036e-13,-3.6046
2.6136e-13,-2.6716
2.6236e-13,-1.7017
2.6336e-13,-0.91821
2.6436e-13,-0.48835
2.6536e-13,-0.47935
2.6636e-13,-0.85357
2.6735e-13,-1.4862
2.6835e-13,-2.2078
2.6935e-13,-2.8599
2.7035e-13,-3.3297
2.7135e-13,-3.5645
2.7235e-13,-3.5596
2.7335e-13,-3.3478
2.7435e-13,-2.9937
2.7535e-13,-2.5796
2.7635e-13,-2.1805
2.7735e-13,-1.8419
2.7835e-13,-1.5631
2.7935e-13,-1.3079
2.8035e-13,-1.0266
2.8135e-13,-0.68421
2.8235e-13,-0.29004
2.8335e-13,0.075719
2.8435e-13,0.28114
2.8535e-13,0.18923
2.8634e-13,-0.26978
2.8734e-13,-1.055
2.8834e-13,-2.013
2.8934e-13,-2.9256
2.9034e-13,-3.5768
2.9134e-13,-3.8384
2.9234e-13,-3.7209
2.9334e-13,-3.3668
2.9434e-13,-2.9801
2.9534e-13,-2.7233
2.9634e-13,-2.6433
2.9734e-13,-2.652
2.9834e-13,-2.5682
2.9934e-13,-2.2107
3.0034e-13,-1.4984
3.0134e-13,-0.51005
3.0234e-13,0.52999
3.0334e-13,1.3463
3.0433e-13,1.7346
3.0533e-13,1.6468
3.0633e-13,1.2042
3.0733e-13,0.65607
3.0833e-13,0.26536
3.0933e-13,0.19136
3.1033e-13,0.41028
3.1133e-13,0.7314
3.1233e-13,0.89948
3.1333e-13,0.72948
3.1433e-13,0.18867
3.1533e-13,-0.58612
3.1633e-13,-1.3517
3.1733e-13,-1.8631
3.1833e-13,-1.9848
3.1933e-13,-1.7675
3.2033e-13,-1.4159
3.2133e-13,-1.1841
3.2233e-13,-1.2396
3.2332e-13,-1.5935
3.2432e-13,-2.0948
3.2532e-13,-2.502
3.2632e-13,-2.5922
3.2732e-13,-2.2703
3.2832e-13,-1.6249
3.2932e-13,-0.88181
3.3032e-13,-0.2925
3.3132e-13,-0.0026253
3.3232e-13,0.0056711
3.3332e-13,-0.11172
3.3432e-13,-0.15103
3.3532e-13,0.033152
3.3632e-13,0.43933
3.3732e-13,0.9022
3.3832e-13,1.1595
3.3932e-13,0.98118
3.4032e-13,0.29906
3.4131e-13,-0.74749
3.4231e-13,-1.8657
3.4331e-13,-2.7353
3.4431e-13,-3.1517
3.4531e-13,-3.1147
3.4631e-13,-2.8205
3.4731e-13,-2.5647
3.4831e-13,-2.5908
3.4931e-13,-2.9607
3.5031e-13,-3.5048
3.5131e-13,-3.8941
3.5231e-13,-3.79
3.5331e-13,-3.0209
3.5431e-13,-1.6863
3.5531e-13,-0.13262
3.5631e-13,1.1837
3.5731e-13,1.8884
3.5831e-13,1.8455
3.593e-13,1.2145
3.603e-13,0.37916
3.613e-13,-0.21932
3.623e-13,-0.29563
3.633e-13,0.14986
3.643e-13,0.82823
3.653e-13,1.3139
3.663e-13,1.25
3.673e-13,0.5197
3.683e-13,-0.68699
3.693e-13,-1.9368
3.703e-13,-2.7427
3.713e-13,-2.7792
3.723e-13,-2.0408
3.733e-13,-0.84817
3.743e-13,0.30376
3.753e-13,0.96782
3.763e-13,0.92941
3.773e-13,0.28759
3.7829e-13,-0.60006
3.7929e-13,-1.301
3.8029e-13,-1.5069
3.8129e-13,-1.1904
3.8229e-13,-0.61337
3.8329e-13,-0.19655
3.8429e-13,-0.30742
3.8529e-13,-1.0744
3.8629e-13,-2.3227
3.8729e-13,-3.6448
3.8829e-13,-4.5808
3.8929e-13,-4.8315
3.9029e-13,-4.3899
3.9129e-13,-3.5306
3.9229e-13,-2.6853
3.9329e-13,-2.2365
3.9429e-13,-2.3459
3.9529e-13,-2.8857
3.9628e-13,-3.5084
3.9728e-13,-3.8262
3.9828e-13,-3.616
3.9928e-13,-2.9379
4.0028e-13,-2.1036
4.0128e-13,-1.5351
4.0228e-13,-1.5649
4.0328e-13,-2.279
4.0428e-13,-3.468
4.0528e-13,-4.7054
4.0628e-13,-5.5344
4.0728e-13,-5.6803
4.0828e-13,-5.1692
4.0928e-13,-4.2992
4.1028e-13,-3.4915
4.1128e-13,-3.0958
4.1228e-13,-3.2304
4.1328e-13,-3.7308
4.1428e-13,-4.234
4.1527e-13,-4.3571
4.1627e-13,-3.8958
4.1727e-13,-2.9358
4.1827e-13,-1.8138
4.1927e-13,-0.96987
4.2027e-13,-0.7571
4.2127e-13,-1.2857
4.2227e-13,-2.3734
4.2327e-13,-3.6228
4.2427e-13,-4.6006
4.2527e-13,-5.033
4.2627e-13,-4.9164
4.2727e-13,-4.4923
4.2827e-13,-4.111
4.2927e-13,-4.0574
4.3027e-13,-4.4217
4.3127e-13,-5.0501
4.3227e-13,-5.6263
4.3326e-13,-5.8206
4.3426e-13,-5.4549
4.3526e-13,-4.5888
4.3626e-13,-3.4921
4.3726e-13,-2.5219
4.3826e-13,-1.9628
4.3926e-13,-1.9184
4.4026e-13,-2.2764
4.4126e-13,-2.7777
4.4226e-13,-3.1493
4.4326e-13,-3.2404
4.4426e-13,-3.0802
4.4526e-13,-2.8493
4.4626e-13,-2.7707
4.4726e-13,-2.9893
4.4826e-13,-3.503
4.4926e-13,-4.1561
4.5026e-13,-4.7131
4.5126e-13,-4.9779
4.5225e-13,-4.8846
4.5325e-13,-4.5265
4.5425e-13,-4.0971
4.5525e-13,-3.8001
4.5625e-13,-3.7503
4.5725e-13,-3.9211
4.5825e-13,-4.1607
4.5925e-13,-4.2822
4.6025e-13,-4.1645
4.6125e-13,-3.8181
4.6225e-13,-3.3777
4.6325e-13,-3.0311
4.6425e-13,-2.9224
4.6525e-13,-3.0823
4.6625e-13,-3.4068
4.6725e-13,-3.6984
4.6825e-13,-3.7653
4.6925e-13,-3.5168
4.7024e-13,-3.0179
4.7124e-13,-2.4561
4.7224e-13,-2.05
4.7324e-13,-1.9517
4.7424e-13,-2.1793
4.7524e-13,-2.6171
4.7624e-13,-3.0702
4.7724e-13,-3.3539
4.7824e-13,-3.3828
4.7924e-13,-3.2111
4.8024e-13,-3.0017
4.8124e-13,-2.9373
4.8224e-13,-3.1287
4.8324e-13,-3.5577
4.8424e-13,-4.0829
4.8524e-13,-4.4963
4.8624e-13,-4.6123
4.8724e-13,-4.357
4.8823e-13,-3.7989
4.8923e-13,-3.1085
4.9023e-13,-2.4757
4.9123e-13,-2.0368
4.9223e-13,-1.8247
4.9323e-13,-1.7761
4.9423e-13,-1.7733
4.9523e-13,-1.7064
4.9623e-13,-1.5319
4.9723e-13,-1.2895
4.9823e-13,-1.0785
4.9923e-13,-0.98885
5.0023e-13,-1.0553
5.0123e-13,-1.2382
5.0223e-13,-1.4471
5.0323e-13,-1.5832
5.0423e-13,-1.58
5.0523e-13,-1.4354
5.0623e-13,-1.1973
5.0722e-13,-0.93324
5.0822e-13,-0.68851
5.0922e-13,-0.4695
5.1022e-13,-0.25187
5.1122e-13,-0.0090484
5.1222e-13,0.24379
5.1322e-13,0.43428
5.1422e-13,0.45134
5.1522e-13,0.19767
5.1622e-13,-0.3571
5.1722e-13,-1.1507
5.1822e-13,-2.0421
5.1922e-13,-2.8653
5.2022e-13,-3.4863
5.2122e-13,-3.86
5.2222e-13,-4.045
5.2322e-13,-4.157
5.2422e-13,-4.3027
5.2521e-13,-4.5046
5.2621e-13,-4.6825
5.2721e-13,-4.6929
5.2821e-13,-4.3955
5.2921e-13,-3.7238
5.3021e-13,-2.7508
5.3121e-13,-1.6849
5.3221e-13,-0.80449
5.3321e-13,-0.34727
5.3421e-13,-0.40417
5.3521e-13,-0.89754
5.3621e-13,-1.6262
5.3721e-13,-2.347
5.3821e-13,-2.8703
5.3921e-13,-3.1328
5.4021e-13,-3.2128
5.4121e-13,-3.2814
5.4221e-13,-3.4981
5.4321e-13,-3.9088
5.442e-13,-4.4111
5.452e-13,-4.7928
5.462e-13,-4.8275
5.472e-13,-4.3703
5.482e-13,-3.4318
5.492e-13,-2.1866
5.502e-13,-0.92017
5.512e-13,0.074923
5.522e-13,0.61464
5.532e-13,0.6827
5.542e-13,0.4203
5.552e-13,0.045722
5.562e-13,-0.24451
5.572e-13,-0.3567
5.582e-13,-0.33181
5.592e-13,-0.31434
5.602e-13,-0.47017
5.612e-13,-0.89466
5.6219e-13,-1.5483
5.6319e-13,-2.2574
5.6419e-13,-2.7827
5.6519e-13,-2.9161
5.6619e-13,-2.5704
5.6719e-13,-1.8191
5.6819e-13,-0.87391
5.6919e-13,-0.0047434
5.7019e-13,0.55769
5.7119e-13,0.71035
5.7219e-13,0.51362
5.7319e-13,0.13972
5.7419e-13,-0.21018
5.7519e-13,-0.40309
5.7619e-13,-0.42207
5.7719e-13,-0.3609
5.7819e-13,-0.366
5.7919e-13,-0.56867
5.8019e-13,-1.0121
5.8118e-13,-1.6098
5.8218e-13,-2.1707
5.8318e-13,-2.4772
5.8418e-13,-2.3835
5.8518e-13,-1.8807
5.8618e-13,-1.0969
5.8718e-13,-0.2463
5.8818e-13,0.45295
5.8918e-13,0.83896
5.9018e-13,0.86759
5.9118e-13,0.61542
5.9218e-13,0.23526
5.9318e-13,-0.11545
5.9418e-13,-0.34349
5.9518e-13,-0.44443
5.9618e-13,-0.48997
5.9718e-13,-0.58017
5.9818e-13,-0.78577
5.9917e-13,-1.1072
6.0017e-13,-1.4577
6.0117e-13,-1.6966
6.0217e-13,-1.6843
6.0317e-13,-1.3364
6.0417e-13,-0.66735
6.0517e-13,0.21254
6.0617e-13,1.1304
6.0717e-13,1.9096
6.0817e-13,2.424
6.0917e-13,2.6326
6.1017e-13,2.5744
6.1117e-13,2.3453
6.1217e-13,2.0553
6.1317e-13,1.7881
6.1417e-13,1.5747
6.1517e-13,1.404
6.1617e-13,1.2535
6.1716e-13,1.1166
6.1816e-13,1.0146
6.1916e-13,0.99987
6.2016e-13,1.1351
6.2116e-13,1.4687
6.2216e-13,2.006
6.2316e-13,2.6991
6.2416e-13,3.4525
6.2516e-13,4.1574
6.2616e-13,4.7247
6.2716e-13,5.0951
6.2816e-13,5.2429
6.2916e-13,5.1752
6.3016e-13,4.9175
6.3116e-13,4.507
6.3216e-13,3.9773
6.3316e-13,3.3648
6.3416e-13,2.716
6.3516e-13,2.1015
6.3615e-13,1.6068
6.3715e-13,1.3121
6.3815e-13,1.2674
6.3915e-13,1.4822
6.4015e-13,1.918
6.4115e-13,2.4966
6.4215e-13,3.118
6.4315e-13,3.6882
6.4415e-13,4.1446
6.4515e-13,4.4499
6.4615e-13,4.5855
6.4715e-13,4.546
6.4815e-13,4.3425
6.4915e-13,3.9862
6.5015e-13,3.4888
6.5115e-13,2.8591
6.5215e-13,2.1312
6.5315e-13,1.3702
6.5414e-13,0.66006
6.5514e-13,0.087981
6.5614e-13,-0.2791
6.5714e-13,-0.39345
6.5814e-13,-0.23196
6.5914e-13,0.19811
6.6014e-13,0.84581
6.6114e-13,1.622
6.6214e-13,2.4217
6.6314e-13,3.1371
6.6414e-13,3.6624
6.6514e-13,3.8991
6.6614e-13,3.7749
6.6714e-13,3.267
6.6814e-13,2.4135
6.6914e-13,1.3026
6.7014e-13,0.051816
6.7114e-13,-1.2131
6.7214e-13,-2.3772
6.7313e-13,-3.3636
6.7413e-13,-4.145
6.7513e-13,-4.7386
6.7613e-13,-5.1766
6.7713e-13,-5.4724
6.7813e-13,-5.6034
6.7913e-13,-5.5124
6.8013e-13,-5.1373
6.8113e-13,-4.4418
6.8213e-13,-3.4573
6.8313e-13,-2.3028
6.8413e-13,-1.1824
6.8513e-13,-0.33194
6.8613e-13,0.055049
6.8713e-13,-0.10212
6.8813e-13,-0.7419
6.8913e-13,-1.6714
6.9013e-13,-2.6303
6.9112e-13,-3.3703
6.9212e-13,-3.7447
6.9312e-13,-3.7501
6.9412e-13,-3.5214
6.9512e-13,-3.2648
6.9612e-13,-3.1694
6.9712e-13,-3.3208
6.9812e-13,-3.6665
6.9912e-13,-4.0385
7.0012e-13,-4.2354
7.0112e-13,-4.1114
7.0212e-13,-3.6544
7.0312e-13,-3.0044
7.0412e-13,-2.4122
7.0512e-13,-2.1439
7.0612e-13,-2.3712
7.0712e-13,-3.0947
7.0812e-13,-4.1279
7.0912e-13,-5.1648
7.1011e-13,-5.8921
7.1111e-13,-6.0972
7.1211e-13,-5.7363
7.1311e-13,-4.9325
7.1411e-13,-3.9125
7.1511e-13,-2.9081
7.1611e-13,-2.061
7.1711e-13,-1.388
7.1811e-13,-0.8003
7.1911e-13,-0.18359
7.2011e-13,0.52922
7.2111e-13,1.2998
7.2211e-13,1.9861
7.2311e-13,2.395
7.2411e-13,2.381
7.2511e-13,1.9181
7.2611e-13,1.119
7.2711e-13,0.18798
7.281e-13,-0.66718
7.291e-13,-1.3102
7.301e-13,-1.7174
7.311e-13,-1.9709
7.321e-13,-2.1927
7.331e-13,-2.4607
7.341e-13,-2.7373
7.351e-13,-2.8728
7.361e-13,-2.6771
7.371e-13,-2.0294
7.381e-13,-0.96771
7.391e-13,0.29566
7.401e-13,1.4288
7.411e-13,2.1024
7.421e-13,2.123
7.431e-13,1.5263
7.441e-13,0.57707
7.451e-13,-0.33174
7.4609e-13,-0.83957
7.4709e-13,-0.76967
7.4809e-13,-0.19888
7.4909e-13,0.58125
7.5009e-13,1.1957
7.5109e-13,1.3558
7.5209e-13,0.98859
7.5309e-13,0.27514
7.5409e-13,-0.42286
7.5509e-13,-0.73396
7.5609e-13,-0.4455
7.5709e-13,0.3846
7.5809e-13,1.4376
7.5909e-13,2.2589
7.6009e-13,2.4314
7.6109e-13,1.7554
7.6209e-13,0.33215
7.6309e-13,-1.468
7.6409e-13,-3.1517
7.6508e-13,-4.2988
7.6608e-13,-4.715
7.6708e-13,-4.4731
7.6808e-13,-3.8422
7.6908e-13,-3.1526
7.7008e-13,-2.652
7.7108e-13,-2.3973
7.7208e-13,-2.2453
7.7308e-13,-1.948
7.7408e-13,-1.3092
7.7508e-13,-0.30328
7.7608e-13,0.89641
7.7708e-13,1.9858
7.7808e-13,2.6537
7.7908e-13,2.7044
7.8008e-13,2.1348
7.8108e-13,1.1309
7.8208e-13,-0.02013
7.8307e-13,-1.0655
7.8407e-13,-1.8934
7.8507e-13,-2.5552
7.8607e-13,-3.1893
7.8707e-13,-3.9186
7.8807e-13,-4.7553
7.8907e-13,-5.559
7.9007e-13,-6.077
7.9107e-13,-6.0572
7.9207e-13,-5.3821
7.9307e-13,-4.157
7.9407e-13,-2.6989
7.9507e-13,-1.4213
7.9607e-13,-0.67732
7.9707e-13,-0.61385
7.9807e-13,-1.1217
7.9907e-13,-1.8819
8.0007e-13,-2.5122
8.0107e-13,-2.7293
8.0206e-13,-2.4827
8.0306e-13,-1.9738
8.0406e-13,-1.55
8.0506e-13,-1.5384
8.0606e-13,-2.0815
8.0706e-13,-3.0491
8.0806e-13,-4.0777
8.0906e-13,-4.7189
8.1006e-13,-4.6347
8.1106e-13,-3.743
8.1206e-13,-2.2674
8.1306e-13,-0.65586
8.1406e-13,0.59225
8.1506e-13,1.1164
8.1606e-13,0.82111
8.1706e-13,-0.10367
8.1806e-13,-1.2876
8.1906e-13,-2.3517
8.2005e-13,-3.0547
8.2105e-13,-3.3809
8.2205e-13,-3.5131
8.2305e-13,-3.7192
8.2405e-13,-4.2064
8.2505e-13,-5.0071
8.2605e-13,-5.9685
8.2705e-13,-6.8238
8.2805e-13,-7.3118
8.2905e-13,-7.2875
8.3005e-13,-6.7801
8.3105e-13,-5.9746
8.3205e-13,-5.1269
8.3305e-13,-4.4474
8.3405e-13,-4.0293
8.3505e-13,-3.8281
8.3605e-13,-3.7397
8.3705e-13,-3.6651
8.3805e-13,-3.5805
8.3904e-13,-3.546
8.4004e-13,-3.6665
8.4104e-13,-4.0217
8.4204e-13,-4.5966
8.4304e-13,-5.2634
8.4404e-13,-5.8224
8.4504e-13,-6.089
8.4604e-13,-5.9844
8.4704e-13,-5.575
8.4804e-13,-5.049
8.4904e-13,-4.6391
8.5004e-13,-4.5152
8.5104e-13,-4.7084
8.5204e-13,-5.0998
8.5304e-13,-5.478
8.5404e-13,-5.6409
8.5504e-13,-5.4979
8.5604e-13,-5.1141
8.5703e-13,-4.6836
8.5803e-13,-4.442
8.5903e-13,-4.5475
8.6003e-13,-5.0055
8.6103e-13,-5.654
8.6203e-13,-6.2203
8.6303e-13,-6.4379
8.6403e-13,-6.1532
8.6503e-13,-5.3887
8.6603e-13,-4.3292
8.6703e-13,-3.2421
8.6803e-13,-2.3701
8.6903e-13,-1.8382
8.7003e-13,-1.6238
8.7103e-13,-1.5937
8.7203e-13,-1.5866
8.7303e-13,-1.4943
8.7403e-13,-1.3134
8.7502e-13,-1.1391
8.7602e-13,-1.1089
8.7702e-13,-1.325
8.7802e-13,-1.7937
8.7902e-13,-2.4105
8.8002e-13,-3.0122
8.8102e-13,-3.4377
8.8202e-13,-3.596
8.8302e-13,-3.501
8.8402e-13,-3.239
8.8502e-13,-2.9226
8.8602e-13,-2.6343
8.8702e-13,-2.3869
8.8802e-13,-2.1324
8.8902e-13,-1.8087
8.9002e-13,-1.3921
8.9102e-13,-0.93659
8.9202e-13,-0.56349
8.9302e-13,-0.41172
8.9401e-13,-0.56945
8.9501e-13,-1.0301
8.9601e-13,-1.686
8.9701e-13,-2.3645
8.9801e-13,-2.8961
8.9901e-13,-3.1737
9.0001e-13,-3.1956
9.0101e-13,-3.0584
9.0201e-13,-2.894
9.0301e-13,-2.8007
9.0401e-13,-2.7915
9.0501e-13,-2.7989
9.0601e-13,-2.7171
9.0701e-13,-2.4572
9.0801e-13,-2.0036
9.0901e-13,-1.4379
9.1001e-13,-0.92151
9.1101e-13,-0.62688
9.12e-13,-0.66276
9.13e-13,-1.0263
9.14e-13,-1.6116
9.15e-13,-2.2617
9.16e-13,-2.8319
9.17e-13,-3.2374
9.18e-13,-3.4721
9.19e-13,-3.5891
9.2e-13,-3.6518
